^C:\ROMEO\DEVELOP\SOURCE (2010-02-27)\GSS\TDMANAGEMENTFORMS\RESFILEMANAGER.RESX
C:\PROGRAM FILES\MICROSOFT SDKS\WINDOWS\V7.0A\BIN\IT\RESGEN.RESOURCES.DLL
^C:\ROMEO\DEVELOP\SOURCE (2010-02-27)\GSS\TDMANAGEMENTFORMS\FILETRANSFER.RESX
^C:\ROMEO\DEVELOP\SOURCE (2010-02-27)\GSS\TDMANAGEMENTFORMS\FILEMANAGER.RESX
^C:\ROMEO\DEVELOP\SOURCE (2010-02-27)\GSS\TDMANAGEMENTFORMS\TUTYPESMANAGEMENT.RESX
^C:\ROMEO\DEVELOP\SOURCE (2010-02-27)\GSS\TDMANAGEMENTFORMS\USERINPUT.RESX
